<svg width="456" height="230" viewBox="0 0 456 230" fill="none" xmlns="http://www.w3.org/2000/svg">
<path d="M214.087 74.7998C221.157 74.7998 226.888 69.0689 226.888 61.9994C226.888 54.93 221.157 49.1991 214.087 49.1991C207.018 49.1991 201.287 54.93 201.287 61.9994C201.287 69.0689 207.018 74.7998 214.087 74.7998Z" fill="#ED063D"/>
<path d="M278.089 193.003C286.153 193.003 292.69 186.466 292.69 178.403C292.69 170.339 286.153 163.802 278.089 163.802C270.026 163.802 263.489 170.339 263.489 178.403C263.489 186.466 270.026 193.003 278.089 193.003Z" fill="#ED063D"/>
<path d="M406.893 200.003C418.822 200.003 428.493 190.332 428.493 178.402C428.493 166.473 418.822 156.802 406.893 156.802C394.963 156.802 385.292 166.473 385.292 178.402C385.292 190.332 394.963 200.003 406.893 200.003Z" fill="#ED063D"/>
<path d="M438.772 1.78322L422.226 18.3298L438.772 34.8764L455.319 18.3298L438.772 1.78322Z" fill="#ED063D"/>
<path d="M99.9225 178.444L86.063 164.585L72.2034 178.444L86.063 192.304L99.9225 178.444Z" fill="#ED063D"/>
<path d="M228.488 163.802H199.487V192.803H228.488V163.802Z" fill="#FFBF15"/>
<path d="M355.091 166.202H330.49V190.803H355.091V166.202Z" fill="#ED063D"/>
<path d="M326.167 34.5012V7.50049L299.166 7.50049V34.5012H326.167Z" fill="#ED063D"/>
<path d="M128.885 136.202H108.484V156.602H128.885V136.202Z" fill="#ED063D"/>
<path d="M310.22 191.333L291.128 210.426L310.22 229.518L329.313 210.426L310.22 191.333Z" fill="#ED063D"/>
<path d="M438.893 97.0002C446.957 97.0002 453.494 90.4634 453.494 82.3998C453.494 74.3362 446.957 67.7994 438.893 67.7994C430.83 67.7994 424.293 74.3362 424.293 82.3998C424.293 90.4634 430.83 97.0002 438.893 97.0002Z" fill="#ED063D"/>
<path d="M246.091 138.198L237.888 146.401L246.091 154.603L254.294 146.401L246.091 138.198Z" fill="#ED063D"/>
<path d="M67.6834 132.801H40.4827V160.002H67.6834V132.801Z" fill="#2595E8"/>
<path d="M86.0837 119.001C88.6243 119.001 90.6838 116.941 90.6838 114.401C90.6838 111.86 88.6243 109.801 86.0837 109.801C83.5432 109.801 81.4836 111.86 81.4836 114.401C81.4836 116.941 83.5432 119.001 86.0837 119.001Z" fill="#ED063D"/>
<path d="M374.092 36.3987C384.034 36.3987 392.093 28.3396 392.093 18.3982C392.093 8.4568 384.034 0.397705 374.092 0.397705C364.151 0.397705 356.092 8.4568 356.092 18.3982C356.092 28.3396 364.151 36.3987 374.092 36.3987Z" fill="#FFBF15"/>
<path d="M417.093 104.001H396.292V124.801H417.093V104.001Z" fill="#ED063D"/>
<path d="M269.812 82.3818L246.194 58.764L222.577 82.3818L246.194 106L269.812 82.3818Z" fill="#2595E8"/>
<path d="M182.487 166.802C193.754 166.802 202.888 157.669 202.888 146.402C202.888 135.135 193.754 126.001 182.487 126.001C171.22 126.001 162.086 135.135 162.086 146.402C162.086 157.669 171.22 166.802 182.487 166.802Z" fill="#ED063D"/>
<path d="M20.2236 64.3009L0 84.5245L20.2236 104.748L40.4473 84.5245L20.2236 64.3009Z" fill="#FFBF15"/>
</svg>
