<svg width="273" height="40" viewBox="0 0 273 40" fill="none" xmlns="http://www.w3.org/2000/svg">
<path d="M4.9451 34.755C1.67158 31.5511 0 27.0936 0 21.243V0H13.0244V20.8948C13.0244 23.7504 13.512 25.7702 14.5567 27.0936C15.6014 28.4169 17.0641 29.0437 18.9446 29.0437C20.8948 29.0437 22.3574 28.4169 23.3325 27.0936C24.3772 25.7702 24.8648 23.7504 24.8648 20.8948V0H37.6802V21.3127C37.6802 27.0936 36.0087 31.6208 32.7351 34.8246C29.392 38.0285 24.7951 39.6304 18.8749 39.6304C12.9548 39.5608 8.28826 37.9588 4.9451 34.755Z" fill="#090012"/>
<path d="M58.9232 25.8399L55.9979 29.1134V38.6553H43.1128V0H55.9283V14.0691L68.6741 0H82.8825L67.4204 16.9944L83.6487 38.6553H68.6044L58.9232 25.8399Z" fill="#090012"/>
<path d="M101.897 28.9741H99.3198V38.725H86.2954V0H103.986C107.538 0 110.673 0.557194 113.319 1.74123C115.966 2.92527 118.055 4.59685 119.448 6.82563C120.911 9.0544 121.608 11.6314 121.608 14.5567C121.608 17.3427 120.981 19.7107 119.727 21.8002C118.473 23.8897 116.662 25.4916 114.294 26.7453L122.443 38.725H108.514L101.897 28.9741ZM107.121 11.2135C106.215 10.4474 104.892 10.0295 103.151 10.0295H99.3895V19.0839H103.151C104.892 19.0839 106.215 18.666 107.121 17.8999C108.026 17.1337 108.444 16.0193 108.444 14.5567C108.444 13.0941 107.956 12.0493 107.121 11.2135Z" fill="#090012"/>
<path d="M155.388 31.969H140.692L138.115 38.725H124.812L141.737 0H154.552L171.477 38.725H157.965L155.388 31.969ZM151.836 22.5664L148.075 12.8155L144.314 22.5664H151.836Z" fill="#090012"/>
<path d="M174.75 0H187.774V38.725H174.75V0Z" fill="#090012"/>
<path d="M232.768 0V38.725H222.042L207.346 21.1037V38.725H194.6V0H205.326L220.092 17.5516V0H232.768Z" fill="#090012"/>
<path d="M272.398 28.8348V38.6553H240.22V0H271.702V9.82054H253.036V14.3477H269.403V23.7504H253.036V28.8348H272.398Z" fill="#090012"/>
</svg>
