<svg width="560" height="137" viewBox="0 0 560 137" fill="none" xmlns="http://www.w3.org/2000/svg">
<path d="M62.6703 85.3424V103.098C62.6703 113.917 60.0061 122.254 54.6777 128.109C49.4762 133.837 41.7374 136.701 31.4612 136.701C21.185 136.701 13.3827 133.837 8.05435 128.109C2.85283 122.254 0.252075 113.917 0.252075 103.098V33.6024C0.252075 22.7834 2.85283 14.5101 8.05435 8.78243C13.3827 2.92748 21.185 0 31.4612 0C41.7374 0 49.4762 2.92748 54.6777 8.78243C60.0061 14.5101 62.6703 22.7834 62.6703 33.6024V46.5851H42.8792V32.2659C42.8792 27.4292 41.8642 24.0562 39.8344 22.147C37.9314 20.1105 35.3306 19.0922 32.0321 19.0922C28.7336 19.0922 26.0694 20.1105 24.0395 22.147C22.1365 24.0562 21.185 27.4292 21.185 32.2659V104.435C21.185 109.271 22.1365 112.644 24.0395 114.554C26.0694 116.463 28.7336 117.417 32.0321 117.417C35.3306 117.417 37.9314 116.463 39.8344 114.554C41.8642 112.644 42.8792 109.271 42.8792 104.435V85.3424H62.6703Z" fill="#050505"/>
<path d="M95.3527 1.52737V104.626C95.3527 109.462 96.3042 112.835 98.2072 114.744C100.237 116.654 102.901 117.608 106.2 117.608C109.498 117.608 112.099 116.654 114.002 114.744C116.032 112.835 117.047 109.462 117.047 104.626V1.52737H136.838V103.289C136.838 114.108 134.174 122.445 128.845 128.3C123.644 134.028 115.905 136.891 105.629 136.891C95.3527 136.891 87.5504 134.028 82.2221 128.3C77.0205 122.445 74.4198 114.108 74.4198 103.289V1.52737H95.3527Z" fill="#050505"/>
<path d="M151.194 1.52737H172.127V116.081H206.571V135.173H151.194V1.52737Z" fill="#050505"/>
<path d="M200.113 1.52737H264.814V20.6196H242.93V135.173H221.997V20.6196H200.113V1.52737Z" fill="#050505"/>
<path d="M294.015 1.52737V104.626C294.015 109.462 294.966 112.835 296.869 114.744C298.899 116.654 301.563 117.608 304.862 117.608C308.161 117.608 310.761 116.654 312.664 114.744C314.694 112.835 315.709 109.462 315.709 104.626V1.52737H335.5V103.289C335.5 114.108 332.836 122.445 327.508 128.3C322.306 134.028 314.567 136.891 304.291 136.891C294.015 136.891 286.213 134.028 280.884 128.3C275.683 122.445 273.082 114.108 273.082 103.289V1.52737H294.015Z" fill="#050505"/>
<path d="M393.625 135.173C393.371 134.282 393.117 133.455 392.864 132.691C392.61 131.927 392.356 130.973 392.102 129.827C391.975 128.682 391.849 127.218 391.722 125.436C391.722 123.654 391.722 121.427 391.722 118.754V97.7523C391.722 91.5155 390.643 87.1243 388.487 84.5787C386.33 82.033 382.841 80.7602 378.02 80.7602H370.789V135.173H349.856V1.52737H381.446C392.356 1.52737 400.222 4.07301 405.043 9.16428C409.991 14.2555 412.464 21.9561 412.464 32.2659V42.7666C412.464 56.5131 407.897 65.5501 398.763 69.8776C404.091 72.0414 407.707 75.6053 409.61 80.5693C411.64 85.406 412.655 91.3246 412.655 98.3251V118.945C412.655 122.254 412.782 125.182 413.035 127.727C413.289 130.146 413.923 132.628 414.938 135.173H393.625ZM370.789 20.6196V61.668H378.972C382.905 61.668 385.949 60.6497 388.106 58.6132C390.39 56.5767 391.531 52.8855 391.531 47.5397V34.3661C391.531 29.5293 390.643 26.0291 388.867 23.8653C387.218 21.7015 384.554 20.6196 380.875 20.6196H370.789Z" fill="#050505"/>
<path d="M494.168 135.173H473.045L469.429 110.926H443.739L440.123 135.173H420.903L442.216 1.52737H472.855L494.168 135.173ZM446.403 92.7884H466.575L456.489 25.2018L446.403 92.7884Z" fill="#050505"/>
<path d="M503.917 1.52737H524.85V116.081H559.294V135.173H503.917V1.52737Z" fill="#050505"/>
</svg>
