<svg width="15" height="15" viewBox="0 0 15 15" fill="none" xmlns="http://www.w3.org/2000/svg">
<path d="M4.49016 7.98558C4.49016 6.51819 5.68503 5.324 7.15241 5.324C8.62013 5.324 9.81433 6.51853 9.81433 7.98558C9.81433 9.45363 8.62046 10.6482 7.15241 10.6482C5.68503 10.6482 4.49016 9.45363 4.49016 7.98558Z" fill="#3399FF"/>
<path fill-rule="evenodd" clip-rule="evenodd" d="M2.71733 0.983826H11.5866C13.0026 0.983826 14.1544 2.13559 14.1544 3.55125V12.4205C14.1544 13.8365 13.0023 14.9883 11.5866 14.9883H2.71733C1.30166 14.9883 0.149902 13.8362 0.149902 12.4205V3.55125C0.149902 2.13559 1.30166 0.983826 2.71733 0.983826ZM2.54195 7.9859C2.54195 10.5281 4.61008 12.5963 7.15198 12.5963C9.69388 12.5963 11.7623 10.5278 11.7623 7.9859C11.7623 5.444 9.69421 3.37587 7.15198 3.37587C4.61008 3.37587 2.54195 5.444 2.54195 7.9859ZM11.9105 4.32904C11.3088 4.32904 10.8194 3.83969 10.8194 3.23828C10.8194 2.63687 11.3088 2.14752 11.9105 2.14752C12.5119 2.14752 13.0013 2.63687 13.0013 3.23828C13.0013 3.83969 12.5119 4.32904 11.9105 4.32904Z" fill="#3399FF"/>
</svg>
