<svg width="127" height="65" viewBox="0 0 127 65" fill="none" xmlns="http://www.w3.org/2000/svg">
<g clip-path="url(#clip0)">
<path d="M81.9539 37.6566L78.5864 41.031L81.9539 44.4054L85.3213 41.031L81.9539 37.6566Z" fill="#ED063D"/>
<path d="M54.1758 7.76828L48.7627 13.1925L54.1758 18.6167L59.5889 13.1925L54.1758 7.76828Z" fill="#ED063D"/>
<path d="M63.4082 54.9355L58.7347 59.6187L63.4082 64.3018L68.0817 59.6187L63.4082 54.9355Z" fill="#FFBF15"/>
<path d="M35.6595 28.2913L32.1504 31.8076L35.6595 35.3239L39.1685 31.8076L35.6595 28.2913Z" fill="#ED063D"/>
<path d="M81.9549 0.424027L78.4458 3.94031L81.9549 7.45659L85.4639 3.94031L81.9549 0.424027Z" fill="#ED063D"/>
<path d="M91.1653 46.8037L87.6562 50.3199L91.1653 53.8362L94.6744 50.3199L91.1653 46.8037Z" fill="#FFBF15"/>
<path d="M35.6627 47.8707L33.2394 50.299L35.6627 52.7272L38.086 50.299L35.6627 47.8707Z" fill="#ED063D"/>
<path d="M37.2307 11.679H34.1597V14.7563H37.2307V11.679Z" fill="#ED063D"/>
<path d="M83.3851 58.2184H80.6256V60.9836H83.3851V58.2184Z" fill="#ED063D"/>
<path d="M46.8888 57.6162H42.9276V61.5855H46.8888V57.6162Z" fill="#ED063D"/>
<path d="M94.2228 28.7383H88.2142V34.7592H94.2228V28.7383Z" fill="#ED063D"/>
<path d="M54.1881 55.6539C57.1378 55.6539 59.529 53.2578 59.529 50.302C59.529 47.3462 57.1378 44.9501 54.1881 44.9501C51.2384 44.9501 48.8472 47.3462 48.8472 50.302C48.8472 53.2578 51.2384 55.6539 54.1881 55.6539Z" fill="#ED063D"/>
<path d="M63.4457 7.53124C65.4368 7.53124 67.0508 5.91385 67.0508 3.9187C67.0508 1.92354 65.4368 0.306152 63.4457 0.306152C61.4547 0.306152 59.8406 1.92354 59.8406 3.9187C59.8406 5.91385 61.4547 7.53124 63.4457 7.53124Z" fill="#ED063D"/>
<path d="M91.2407 15.0461C92.2362 15.0461 93.0432 14.2374 93.0432 13.2399C93.0432 12.2423 92.2362 11.4336 91.2407 11.4336C90.2451 11.4336 89.4381 12.2423 89.4381 13.2399C89.4381 14.2374 90.2451 15.0461 91.2407 15.0461Z" fill="#ED063D"/>
<path d="M44.9305 6.68388C46.4545 6.68388 47.69 5.44588 47.69 3.91872C47.69 2.39157 46.4545 1.15356 44.9305 1.15356C43.4065 1.15356 42.171 2.39157 42.171 3.91872C42.171 5.44588 43.4065 6.68388 44.9305 6.68388Z" fill="#2595E8"/>
<path d="M44.8859 27.4224C47.6267 27.4224 49.8486 25.196 49.8486 22.4496C49.8486 19.7032 47.6267 17.4768 44.8859 17.4768C42.1452 17.4768 39.9233 19.7032 39.9233 22.4496C39.9233 25.196 42.1452 27.4224 44.8859 27.4224Z" fill="#2595E8"/>
<path d="M72.7032 54.6281C75.0876 54.6281 77.0205 52.6912 77.0205 50.302C77.0205 47.9127 75.0876 45.9758 72.7032 45.9758C70.3189 45.9758 68.386 47.9127 68.386 50.302C68.386 52.6912 70.3189 54.6281 72.7032 54.6281Z" fill="#ED063D"/>
<path d="M69.7989 38.9201L64.6533 44.0763L69.7989 49.2325L74.9445 44.0763L69.7989 38.9201Z" fill="#2595E8"/>
<path d="M82.1166 34.9375C83.8987 34.9375 85.3434 33.4898 85.3434 31.704C85.3434 29.9182 83.8987 28.4706 82.1166 28.4706C80.3345 28.4706 78.8898 29.9182 78.8898 31.704C78.8898 33.4898 80.3345 34.9375 82.1166 34.9375Z" fill="#FFBF15"/>
<path d="M41.5701 45.5297C40.502 44.5039 39.9901 43.0544 39.9901 41.2036V34.3799H44.1516V41.0698C44.1516 41.9841 44.3074 42.6308 44.6412 43.0544C44.975 43.4781 45.4423 43.6788 46.0431 43.6788C46.6663 43.6788 47.1336 43.4781 47.4451 43.0544C47.7789 42.6308 47.9347 41.9841 47.9347 41.0698V34.3799H52.0294V41.2036C52.0294 43.0544 51.4953 44.5039 50.4494 45.5297C49.3812 46.5555 47.9125 47.0684 46.0209 47.0684C44.1071 47.0684 42.6383 46.5555 41.5701 45.5297Z" fill="#090012"/>
<path d="M58.7946 42.6754L57.86 43.7234V46.7785H53.7653V34.3799H57.86V38.8844L61.9324 34.3799H66.4722L61.5318 39.8433L66.717 46.7785H61.8879L58.7946 42.6754Z" fill="#090012"/>
<path d="M72.5475 43.6789H71.7241V46.8008H67.5626V34.4022H73.2151C74.3501 34.4022 75.3515 34.5806 76.1971 34.9597C77.0428 35.3388 77.7104 35.874 78.1555 36.5876C78.6228 37.3012 78.8453 38.1263 78.8453 39.0629C78.8453 39.9548 78.6451 40.713 78.2445 41.382C77.8439 42.051 77.2653 42.5639 76.5087 42.9653L79.1124 46.8008H74.6616L72.5475 43.6789ZM74.1943 37.9925C73.905 37.7472 73.4822 37.6134 72.9258 37.6134H71.7241V40.5123H72.9258C73.4822 40.5123 73.905 40.3785 74.1943 40.1332C74.4836 39.8879 74.6171 39.5311 74.6171 39.0629C74.6171 38.6169 74.4836 38.2601 74.1943 37.9925Z" fill="#090012"/>
<path d="M89.7942 44.6378H85.0986L84.2753 46.8008H80.0248L85.4325 34.4022H89.5272L94.9348 46.8008H90.6176L89.7942 44.6378ZM88.637 41.6273L87.4353 38.5054L86.2336 41.6273H88.637Z" fill="#090012"/>
<path d="M95.8027 34.4022H99.9642V46.8008H95.8027V34.4022Z" fill="#090012"/>
<path d="M114.362 34.4022V46.8008H110.935L106.24 41.159V46.8008H102.167V34.4022H105.594L110.29 40.044V34.4022H114.362Z" fill="#090012"/>
<path d="M126.847 43.6342V46.7785H116.566V34.3799H126.624V37.5464H120.66V38.9959H125.89V42.0064H120.66V43.6342H126.847Z" fill="#090012"/>
<path d="M9.76943 28.0468H5.07387L4.25048 30.2099H0L5.40768 17.8113H9.50239L14.9101 30.2099H10.5928L9.76943 28.0468ZM8.63449 25.0364L7.43278 21.9144L6.23107 25.0364H8.63449Z" fill="#090012"/>
<path d="M16.9797 28.9611C15.9115 27.9353 15.3997 26.4858 15.3997 24.635V17.8113H19.5611V24.5012C19.5611 25.4155 19.7169 26.0622 20.0507 26.4858C20.3845 26.9095 20.8518 27.1102 21.4527 27.1102C22.0758 27.1102 22.5431 26.9095 22.8547 26.4858C23.1885 26.0622 23.3443 25.4155 23.3443 24.5012V17.8113H27.439V24.635C27.439 26.4858 26.9049 27.9353 25.859 28.9611C24.7908 29.9869 23.322 30.4998 21.4304 30.4998C19.5166 30.4998 18.0479 29.9869 16.9797 28.9611Z" fill="#090012"/>
<path d="M31.1554 30.143C30.1762 29.92 29.3751 29.6078 28.752 29.2064L30.0872 26.1514C30.6658 26.4859 31.3334 26.7758 32.0678 26.9765C32.8022 27.1772 33.492 27.2887 34.1819 27.2887C34.7605 27.2887 35.1611 27.2218 35.4281 27.1103C35.6729 26.9988 35.8064 26.8204 35.8064 26.5974C35.8064 26.3298 35.6506 26.1514 35.3168 26.0176C34.983 25.8838 34.4489 25.75 33.7146 25.5939C32.7576 25.3932 31.9565 25.1702 31.3334 24.9472C30.688 24.7242 30.1539 24.3451 29.6644 23.8099C29.197 23.2747 28.9522 22.5834 28.9522 21.6691C28.9522 20.8887 29.1748 20.1751 29.5976 19.5507C30.0427 18.904 30.688 18.4134 31.5559 18.0343C32.4238 17.6775 33.4698 17.4768 34.716 17.4768C35.5616 17.4768 36.4073 17.566 37.2084 17.7444C38.0318 17.9228 38.7439 18.1904 39.367 18.5472L38.1208 21.5799C36.8969 20.9556 35.7619 20.6657 34.6715 20.6657C33.6033 20.6657 33.0692 20.9333 33.0692 21.4461C33.0692 21.6914 33.225 21.8698 33.5365 22.0036C33.8481 22.1374 34.3822 22.2712 35.1166 22.405C36.0512 22.5834 36.8524 22.7841 37.4977 23.0071C38.1431 23.2301 38.6994 23.6092 39.189 24.1221C39.6563 24.635 39.9011 25.3486 39.9011 26.2406C39.9011 27.0211 39.6786 27.7346 39.2558 28.359C38.8107 28.9834 38.1653 29.4963 37.2974 29.8754C36.4295 30.2545 35.3836 30.4329 34.1374 30.4329C33.1137 30.4998 32.1123 30.3883 31.1554 30.143Z" fill="#090012"/>
<path d="M59.0617 27.0879H57.9267V30.2099H53.7653V17.8113H59.7293C60.8642 17.8113 61.8657 17.9897 62.7113 18.3688C63.5569 18.7479 64.2246 19.2831 64.6696 19.9966C65.137 20.7102 65.3595 21.5353 65.3595 22.4719C65.3595 23.3639 65.1592 24.1221 64.7587 24.7911C64.3581 25.4601 63.7795 25.973 63.0229 26.3743L65.6266 30.2099H61.1758L59.0617 27.0879ZM60.7307 21.4238C60.4414 21.1785 60.0186 21.0447 59.4622 21.0447H57.949V23.9437H59.4622C60.0186 23.9437 60.4414 23.8099 60.7307 23.5646C61.02 23.3193 61.1535 22.9625 61.1535 22.4942C61.1535 22.0259 60.9978 21.6691 60.7307 21.4238Z" fill="#090012"/>
<path d="M67.5404 17.8113H71.7019V30.2099H67.5404V17.8113Z" fill="#090012"/>
<path d="M82.7842 28.0468H78.0886L77.2653 30.2099H73.0148L78.4224 17.8113H82.5171L87.9248 30.2099H83.6076L82.7842 28.0468ZM81.627 25.0364L80.4253 21.9144L79.2236 25.0364H81.627Z" fill="#090012"/>
<path d="M43.9291 21.067H40.3462V17.8113H51.6957V21.0447H48.1128V30.2099H43.9513V21.067H43.9291Z" fill="#090012"/>
<path d="M57.5262 21.5578C58.7799 21.5578 59.7961 20.5394 59.7961 19.2832C59.7961 18.027 58.7799 17.0087 57.5262 17.0087C56.2726 17.0087 55.2563 18.027 55.2563 19.2832C55.2563 20.5394 56.2726 21.5578 57.5262 21.5578Z" fill="#FFBF15"/>
<path d="M82.2817 41.1558L79.3706 44.0729L82.2817 46.99L85.1928 44.0729L82.2817 41.1558Z" fill="#2595E8"/>
<path d="M75.4182 10.4971H70.0105V15.9159H75.4182V10.4971Z" fill="#ED063D"/>
<path d="M82.1389 24.7688C83.4171 24.7688 84.4533 23.7305 84.4533 22.4497C84.4533 21.1688 83.4171 20.1305 82.1389 20.1305C80.8607 20.1305 79.8245 21.1688 79.8245 22.4497C79.8245 23.7305 80.8607 24.7688 82.1389 24.7688Z" fill="#ED063D"/>
<path d="M46.2658 39.6874H43.5286V42.4302H46.2658V39.6874Z" fill="#ED063D"/>
</g>
<defs>
<clipPath id="clip0">
<rect width="126.847" height="64" fill="white" transform="translate(0 0.306152)"/>
</clipPath>
</defs>
</svg>
